{
  "MoaDocuments": [
    {
      "id": 1,
      "trNo": "erT3dw7G5p",
      "trStep": 4,
      "stepTitle": "Ready for retrieval of MoA at PUP ITech",
      "updateSteptime": "8:50 PM",
      "updateStepdate": "03 June, 2024",
      "step1Timestamp": "6:13 PM",
      "step1Datestamp": "27 May, 2024",
      "step2Timestamp": "10:38 AM",
      "step2Datestamp": "31 May, 2024",
      "step3Timestamp": "8:50 PM",
      "step3Datestamp": "03 June, 2024",
      "step4Timestamp": null,
      "step4Datestamp": null,
      "step5Timestamp": null,
      "step5Datestamp": null,
      "signatoryName": "asad",
      "signatoryPosition": "fdfrgfgf",
      "hteName": "try",
      "hteClass": "Private",
      "program": "",
      "hteEmail": "wewd",
      "htePhone": "35422532",
      "province": "Basilan",
      "barangay": "Bohelebung",
      "city": "Tipo-Tipo",
      "street": "",
      "notaryDate": null,
      "validity": null,
      "hteMoa": {
        "__key": "1716804115669document (10).doc14280"
      },
      "hteDti": {
        "__key": "1716774082999DDIRECT_20240526_142008_0000.pdf58693"
      },
      "hteSec": {
        "__key": "1716774481421DDIRECT_20240526_142008_0000 (1).pdf58693"
      }
    },
    {
      "id": 2,
      "trNo": "lb6TSfAOGz",
      "trStep": 4,
      "stepTitle": "Ready for retrieval of MoA at PUP ITech",
      "updateSteptime": "5:11 PM",
      "updateStepdate": "03 June, 2024",
      "step1Timestamp": "10:20 AM",
      "step1Datestamp": "31 May, 2024",
      "step2Timestamp": "4:57 PM",
      "step2Datestamp": "03 June, 2024",
      "step3Timestamp": "5:11 PM",
      "step3Datestamp": "03 June, 2024",
      "step4Timestamp": null,
      "step4Datestamp": null,
      "step5Timestamp": null,
      "step5Datestamp": null,
      "signatoryName": "Alliah Reyes",
      "signatoryPosition": "HR Manager",
      "hteName": "Orion Corp",
      "hteClass": "Public",
      "program": "",
      "hteEmail": "alliah@orion.com",
      "htePhone": "92382832",
      "province": "Batangas",
      "barangay": "San Isidro Norte",
      "city": "City of Sto. Tomas",
      "street": "",
      "notaryDate": null,
      "validity": null,
      "hteMoa": {
        "__key": "1717122029557document (11).doc14338"
      },
      "hteDti": null,
      "hteSec": null
    },
    {
      "id": 3,
      "trNo": "vM1XnKCEOB",
      "trStep": 6,
      "stepTitle": "New MoA uploaded to the database",
      "notifStatus": true,
      "updateSteptime": "3:46 PM",
      "updateStepdate": "05 June, 2024",
      "step1Timestamp": "4:44 PM",
      "step1Datestamp": "03 June, 2024",
      "step2Timestamp": "1:20 PM",
      "step2Datestamp": "05 June, 2024",
      "step3Timestamp": "2:26 PM",
      "step3Datestamp": "05 June, 2024",
      "step4Timestamp": "3:39 PM",
      "step4Datestamp": "05 June, 2024",
      "step5Timestamp": "3:46 PM",
      "step5Datestamp": "05 June, 2024",
      "signatoryName": "Avilaine Imbang",
      "signatoryPosition": "HR Manager",
      "hteName": "AAA Company",
      "hteClass": "Private",
      "program": "",
      "hteEmail": "avi@aaa.com",
      "htePhone": "923829293",
      "province": "Batanes",
      "barangay": "Raele",
      "city": "Itbayat",
      "street": "",
      "notaryDate": "June 7, 2024",
      "validity": 2,
      "hteMoa": {
        "__key": "1717058892409Imbang, Marie Avilaine Villasoto  - report.pdf6126"
      },
      "hteDti": {
        "__key": "1716779429587THE LEATHER MEMOMARKER.pdf170464"
      },
      "hteSec": {
        "__key": "1716378697066Imbang, Marie Avilaine.pdf60599"
      }
    },
    {
      "id": 4,
      "trNo": "lX2z6fuLRj",
      "trStep": 4,
      "stepTitle": "Ready for retrieval of MoA at PUP ITech",
      "updateSteptime": "6:58 PM",
      "updateStepdate": "07 June, 2024",
      "step1Timestamp": "8:46 PM",
      "step1Datestamp": "03 June, 2024",
      "step2Timestamp": "8:50 PM",
      "step2Datestamp": "03 June, 2024",
      "step3Timestamp": "6:58 PM",
      "step3Datestamp": "07 June, 2024",
      "step4Timestamp": null,
      "step4Datestamp": null,
      "step5Timestamp": null,
      "step5Datestamp": null,
      "signatoryName": "ako",
      "signatoryPosition": "hr",
      "hteName": "Mema Company",
      "hteClass": "Private",
      "program": "",
      "hteEmail": "a@email.com",
      "htePhone": "93483",
      "province": "Bataan",
      "barangay": "Binaritan",
      "city": "Morong",
      "street": "",
      "notaryDate": null,
      "validity": null,
      "hteMoa": {
        "__key": "1717418707332document (13).doc14278"
      },
      "hteDti": {
        "__key": "1717058892409Imbang, Marie Avilaine Villasoto  - report.pdf6126"
      },
      "hteSec": {
        "__key": "1717058892409Imbang, Marie Avilaine Villasoto  - report.pdf6126"
      }
    },
    {
      "id": 5,
      "trNo": "KQIGpWM7TQ",
      "trStep": 4,
      "signatoryName": "Mylene Kuu",
      "signatoryPosition": "HR Manager",
      "hteName": "My Company",
      "hteClass": "Public",
      "program": "",
      "hteEmail": "kuu@my.com",
      "htePhone": "92382992",
      "province": "Agusan Del Sur",
      "barangay": "La Suerte",
      "city": "Prosperidad",
      "street": "",
      "notaryDate": null,
      "validity": null,
      "hteMoa": {
        "__key": "1717588249351Memorandum_of_Agreement-document (5).doc14324"
      },
      "hteDti": null,
      "hteSec": null,
      "stepTitle": "Ready for retrieval of MoA at PUP ITech",
      "updateSteptime": "2:43 PM",
      "updateStepdate": "08 June, 2024",
      "notifStatus": false,
      "step1Timestamp": "8:03 PM",
      "step1Datestamp": "05 June, 2024",
      "combinedDate": "05 June, 2024 | 8:03 PM",
      "step2Timestamp": "3:33 PM",
      "step2Datestamp": "06 June, 2024",
      "step3Timestamp": "2:43 PM",
      "step3Datestamp": "08 June, 2024"
    },
    {
      "id": 6,
      "trNo": "mjDhr77jPz",
      "trStep": 1,
      "signatoryName": "Syrill Imbang",
      "signatoryPosition": "HR Manager",
      "hteName": "Syrill Incorporation",
      "hteClass": "government agency",
      "program": "",
      "hteEmail": "sy@gmail.com",
      "htePhone": "9238290",
      "province": "Batanes",
      "barangay": "San Vicente",
      "city": "Ivana",
      "street": "",
      "notaryDate": "May 30, 2024",
      "validity": "5 months",
      "hteMoa": {
        "__key": "1717058892409Imbang, Marie Avilaine Villasoto  - report.pdf6126"
      },
      "hteDti": null,
      "hteSec": null,
      "stepTitle": "New MoA uploaded to the database",
      "updateSteptime": "5:32 PM",
      "updateStepdate": "07 June, 2024",
      "notifStatus": true,
      "step1Timestamp": "4:31 PM",
      "step1Datestamp": "07 June, 2024",
      "hteMoafilename": "Memorandum_of_Agreement-document (11).doc",
      "combinedDate": "07 June, 2024 | 2:46 PM",
      "step2Timestamp": "4:48 PM",
      "step2Datestamp": "07 June, 2024",
      "step3Timestamp": "4:48 PM",
      "step3Datestamp": "07 June, 2024",
      "step4Timestamp": "4:49 PM",
      "step4Datestamp": "07 June, 2024",
      "step5Timestamp": "5:32 PM",
      "step5Datestamp": "07 June, 2024"
    },
    {
      "id": 7,
      "trNo": "JkvmVjVQTV",
      "trStep": 5,
      "signatoryName": "Hazel Mendoza",
      "signatoryPosition": "CEO",
      "hteName": "Hazel Company",
      "hteClass": "sole proprietorship",
      "program": "",
      "hteEmail": "hazel@gmail.com",
      "htePhone": "28319237",
      "province": "Bataan",
      "barangay": "Lucanin",
      "city": "Mariveles",
      "street": "",
      "notaryDate": "June 6, 2024",
      "validity": "3 years",
      "hteMoa": {
        "__key": "1716378429445Application_for_graduation (2).pdf46663"
      },
      "hteDti": {
        "__key": "1717058892409Imbang, Marie Avilaine Villasoto  - report.pdf6126"
      },
      "hteSec": {
        "__key": "1717058892409Imbang, Marie Avilaine Villasoto  - report.pdf6126"
      },
      "hteMoafilename": "Memorandum_of_Agreement-document.doc",
      "hteDtifilename": "Imbang, Marie Avilaine Villasoto  - report.pdf",
      "hteSecfilename": "Imbang, Marie Avilaine Villasoto  - report.pdf",
      "stepTitle": "Return Retrieved MoA, Signed by HTE and Notarized",
      "updateSteptime": "3:50 PM",
      "updateStepdate": "09 June, 2024",
      "notifStatus": true,
      "step1Timestamp": "8:26 PM",
      "step1Datestamp": "07 June, 2024",
      "step2Timestamp": "3:49 PM",
      "step2Datestamp": "09 June, 2024",
      "step3Timestamp": "3:49 PM",
      "step3Datestamp": "09 June, 2024",
      "step4Timestamp": "3:50 PM",
      "step4Datestamp": "09 June, 2024",
      "step5Timestamp": "8:30 PM",
      "step5Datestamp": "07 June, 2024",
      "combinedDate": "09 June, 2024 | 3:50 PM"
    }
  ]
}